\relax 
\@writefile{toc}{\contentsline {section}{\tocsection {}{1}{Problem Outline}}{1}}
\@writefile{toc}{\contentsline {section}{\tocsection {}{2}{Motivation}}{1}}
\@writefile{toc}{\contentsline {section}{\tocsection {}{3}{Mathematical Model}}{1}}
\@writefile{toc}{\contentsline {section}{\tocsection {}{4}{Numerical Methods}}{2}}
\@writefile{toc}{\contentsline {subsection}{\tocsubsection {}{4.1}{Choice of discretization}}{3}}
\@writefile{toc}{\contentsline {subsection}{\tocsubsection {}{4.2}{Algorithm and Software}}{3}}
\@writefile{toc}{\contentsline {subsection}{\tocsubsection {}{4.3}{Implementation \& Verification}}{3}}
\@writefile{toc}{\contentsline {section}{\tocsection {}{5}{Results}}{3}}
\@writefile{toc}{\contentsline {section}{\tocsection {}{6}{Future Work}}{4}}
\@writefile{toc}{\contentsline {section}{List of Figures}{4}}
\newlabel{tocindent-1}{0pt}
\newlabel{tocindent0}{0pt}
\newlabel{tocindent1}{17.77782pt}
\newlabel{tocindent2}{29.38873pt}
\newlabel{tocindent3}{0pt}
\@writefile{toc}{\contentsline {section}{\tocsection {}{7}{Appendix I: Reflections}}{5}}
\@writefile{toc}{\contentsline {section}{\tocsection {}{8}{References}}{5}}
\@writefile{lof}{\contentsline {figure}{\numberline {1}{\ignorespaces Radial temperature distribution through time.}}{6}}
\newlabel{radial}{{1}{6}}
\@writefile{lof}{\contentsline {figure}{\numberline {2}{\ignorespaces Solution for exponentially decaying temperature at $r = R_{C}$}}{6}}
\newlabel{radial2}{{2}{6}}
\@writefile{lof}{\contentsline {figure}{\numberline {3}{\ignorespaces Changing diffusivity to , highest value reported in the literature}}{7}}
\newlabel{diff}{{3}{7}}
\@writefile{lof}{\contentsline {figure}{\numberline {4}{\ignorespaces Plot of final $T(r)$, close agreement with known solution (blue).}}{7}}
\newlabel{accuracy}{{4}{7}}
\@writefile{lof}{\contentsline {figure}{\numberline {5}{\ignorespaces Convergence achieved for spherical problem.}}{8}}
\newlabel{radialconv}{{5}{8}}
\@writefile{lof}{\contentsline {figure}{\numberline {6}{\ignorespaces Convergence test for 2D FTCS scheme.}}{8}}
\newlabel{noop}{{6}{8}}
