cl1 = 0.03;
Point(1) = {0, 1., 0, cl1};
Point(2) = {1., 1., 0, cl1};
Point(3) = {1., 0.5, 0, cl1};
Point(4) = {2., 0.5, 0, cl1};
Point(5) = {2., 0., 0, cl1};
Point(6) = {1.5, 0, 0, cl1};
Point(7) = {1.5, 0.25, 0, cl1};
Point(8) = {0., 0.25, 0, cl1};
Line(1) = {1, 2};
Line(2) = {2, 3};
Line(3) = {3, 4};
Line(4) = {4, 5};
Line(5) = {5, 6};
Line(6) = {6, 7};
Line(7) = {7, 8};
Line(8) = {8, 1};
Physical Line(1) = {8};
Physical Line(2) = {1};
Physical Line(3) = {2};
Physical Line(4) = {3};
Physical Line(5) = {4};
Physical Line(6) = {5};
Physical Line(7) = {6};
Physical Line(8) = {7};
Point(9) = {0.5, 0.75, 0, cl1};
Point(10) = {0.4, 0.9, 0, cl1};
Point(11) = {0.3, 0.7, 0, cl1};
Point(12) = {0.3, 0.65, 0, cl1};
Point(13) = {0.3, 0.55, 0, cl1};
BSpline(9) = {9, 10, 11, 12,13,9};
Line Loop(10) = {1, 2, 3, 4, 5, 6, 7, 8};
Line Loop(11) = {9};
Plane Surface(12) = {10, 11};
Physical Line(9) = {9};
Physical Surface(13) = {12};
